{
    "ViewController" :{
        "views" : [
                   {
                   "id":"containerView",
                   "class":"UIView",
                   "backgroundColor":"blue",
                   "views":[
                            {
                            "id":"titleLabel",
                            "class":"UILabel",
                            "backgroundColor":"green",
                            "properties":[
                                          {"text":"This is a label"}
                                          ],
                            },
                            {
                            "id":"nameTextView",
                            "class":"UITextField",
                            "backgroundColor":"white",
                            "properties":[
                                          {"placeholder":"This is a text placeholder"}
                                          ],
                            }
                        ],
                   "horizontal":[
                                 "|-20-[titleLabel]-20-|",
                                 "|-20-[nameTextView]-20-|",
                   ],
                   "vertical":[
                               "|-[titleLabel(44)]-20-[nameTextView(44)]-|"
                   ]
                   
                   },
                   
                   {
                   "id":"helloButton",
                   "class":"UIButton",
                   "backgroundColor":"c2c2c2",
                   "onClick":"helloButtonAction",
                   "properties":[
                                 {"title":"This is a button"}
                                 ],
                   },
                   {
                   "id":"greetingsTableView",
                   "class":"UITableView",
                   "backgroundColor":"c2c2c2",
                   "tableStyle":"plain",
                   "itemSize":{"width":0,"height":100},
                   "registerClass":"UITableViewCell",
                   "reuseIdentifier":"cellId",
                   "properties":[
                                 {"alwaysBounceVertical":true}
                                 ],
                   },
                   
                   ],
        "horizontal": [
                       "|-[containerView]-|",
                       "|-60-[helloButton]-60-|",
                       "|-[greetingsTableView]-|",
                       ],
        "vertical":[
                    "|-72-[containerView]-20-[helloButton(44)]-20-[greetingsTableView]-|"
                    ]
    },
    "SecondViewController" :{
        "views" : [
                   {
                   "id":"greetingsCollectionView",
                   "class":"UICollectionView",
                   "backgroundColor":"c2c2c2",
                   "layoutClass":"UICollectionViewFlowLayout",
                   "scrollDirection":"vertical",
                   "tableStyle":"plain",
                   "sectionInset": {"top":20, "left": 10, "bottom": 10, "right": 10},
                   "itemSize":{"width":150,"height":200},
                   "registerClass":"JSONViewBuilderApp.SecondViewCell",
                   "reuseIdentifier":"cellId",
                   "properties":[
                                 {"bounces":true,"automaticallyAdjustsScrollViewInsets":false}
                                 ],
                   },
                   
                   ],
        "horizontal": [
                       "|-[greetingsCollectionView]-|",
                       ],
        "vertical":[
                    "|-[greetingsCollectionView]-20-|"
                    ]
    },
    "SecondViewCell" :{
        "views": [
                  {
                  "id":"titleLabel",
                  "class":"UILabel",
                  "backgroundColor":"green",
                  "textAlignment": "center",
                  "properties":[
                                ],
                  },
                  {
                  "id":"portraitImageView",
                  "class": "UIImageView",
                  "imageNamed": "portraitPlaceholder",
                  "backgroundColor": "gray",
                  "properties": [],
                  }
        ],
        "horizontal": ["|-16-[portraitImageView(40)]-[titleLabel]-8-|"],
        "vertical": ["|-16-[titleLabel]-8-|","|-16-[portraitImageView(40)]"]
    }
    
}
